<?xml version="1.0" encoding="UTF-8"?>
<!DOCTYPE svg PUBLIC "-//W3C//DTD SVG 1.1//EN" "http://www.w3.org/Graphics/SVG/1.1/DTD/svg11.dtd">
<!-- Creator: CorelDRAW X7 -->
<svg xmlns="http://www.w3.org/2000/svg" xml:space="preserve" width="9.9375in" height="2.32835in" version="1.1" style="shape-rendering:geometricPrecision; text-rendering:geometricPrecision; image-rendering:optimizeQuality; fill-rule:evenodd; clip-rule:evenodd"
viewBox="0 0 9937 2328"
 xmlns:xlink="http://www.w3.org/1999/xlink">
 <defs>
  <style type="text/css">
   <![CDATA[
    .fil0 {fill:none}
    .fil2 {fill:#FEFEFE}
    .fil1 {fill:#23466A}
    .fil3 {fill:#FEFEFE;fill-rule:nonzero}
   ]]>
  </style>
 </defs>
 <g id="Layer_x0020_1">
  <metadata id="CorelCorpID_0Corel-Layer"/>
  <rect class="fil0" width="9937" height="2328"/>
  <g id="_805419176">
   <circle class="fil1" cx="1051" cy="1164" r="864"/>
   <g>
    <path class="fil2" d="M2432 1143c23,26 39,56 39,90 0,31 -12,57 -31,80 -22,26 -52,44 -84,55 -37,14 -77,19 -116,18 -46,-2 -91,-11 -134,-27 -51,-19 -79,-64 -94,-114l-3 -8 91 -17 2 7c16,73 102,83 163,83 27,-1 56,-7 78,-23 16,-12 27,-26 27,-46 0,-30 -20,-46 -47,-55l0 0c-11,-4 -24,-7 -35,-9 -21,-5 -42,-8 -63,-12 -41,-7 -87,-16 -124,-33 -33,-15 -53,-40 -64,-74l0 -1 0 0c-1,-12 -3,-25 -5,-36l0 -1 0 -1c4,-107 97,-140 191,-148 44,-2 87,7 127,22 50,17 80,54 96,104l2 7 -88 21 -2 -7c-9,-24 -26,-42 -49,-53 -26,-12 -55,-17 -83,-17 -25,0 -53,4 -73,19 -15,11 -24,26 -24,45 0,20 9,33 27,41 28,13 66,19 96,24 36,5 74,11 109,21 28,8 53,23 71,45zm105 -23c0,-42 11,-82 29,-119 19,-38 46,-69 81,-92 37,-24 78,-35 122,-36 70,-2 138,15 186,68 48,54 64,125 64,196l0 7 -376 0c-3,44 8,85 39,117 29,31 64,48 106,49 29,-1 56,-9 81,-24 24,-16 40,-37 50,-64l2 -6 93 15 -4 9c-18,47 -47,87 -92,111 -39,20 -80,32 -123,34 -74,4 -145,-14 -194,-73 -44,-54 -65,-117 -66,-186l0 -2 1 -2c0,-1 0,-2 1,-2zm897 70l86 16 -2 7c-7,46 -28,87 -60,121 -39,41 -97,52 -152,52 -68,0 -127,-23 -168,-79 -40,-55 -56,-119 -54,-187 2,-43 11,-85 29,-123 17,-37 43,-67 77,-90 37,-25 82,-34 127,-34 47,0 91,13 129,40 43,31 63,80 72,130l2 8 -89 16 -1 -8c-4,-32 -14,-65 -41,-84 -22,-15 -46,-25 -72,-25 -41,0 -74,14 -98,48 -25,36 -34,77 -34,120 0,47 8,95 31,137 21,36 53,54 94,53 30,0 60,-7 81,-29 22,-22 34,-52 41,-82l2 -7zm507 114c-12,20 -28,36 -48,49 -32,22 -68,33 -107,33 -49,0 -93,-14 -129,-48 -39,-37 -50,-93 -50,-145l0 -310 95 0 0 305c0,72 24,121 102,118 22,0 43,-7 62,-19 20,-13 37,-31 49,-51 13,-22 19,-45 19,-70l0 -283 94 0 0 494 -87 0 0 -73zm304 -333c5,-11 11,-21 17,-31 13,-22 35,-39 57,-51 30,-18 67,-20 101,-16l7 1 0 86 -8 0c-47,-5 -89,7 -121,42 -28,30 -46,66 -46,108l0 267 -94 0 0 -494 87 0 0 88zm242 -255l103 0 0 98 -103 0 0 -98zm4 169l95 0 0 492 -95 0 0 -492zm259 69l-92 0 0 -74 92 0 0 -119 92 -6 0 125 117 0 0 74 -117 0 0 277c0,20 3,43 15,60 12,17 39,21 59,21 21,-2 42,-4 63,-7l9 -2 0 75 -7 1c-25,3 -50,6 -75,6 -43,0 -93,-8 -122,-44 -27,-33 -34,-80 -34,-122l0 -265zm462 277l135 -346 85 0 -195 500c-10,27 -20,54 -32,79 -12,24 -29,43 -49,58 -26,20 -58,26 -89,26 -22,0 -46,-5 -67,-10l-6 -1 0 -73 8 0c9,0 20,2 30,3 6,1 16,3 22,3 25,0 46,-8 64,-23 23,-20 37,-58 44,-87l-182 -475 98 0 134 346zm963 -88c23,26 39,56 39,90 0,31 -12,57 -31,80 -22,26 -52,44 -84,55 -37,14 -76,19 -116,18 -46,-2 -91,-11 -133,-27 -51,-19 -79,-64 -95,-114l-2 -8 91 -17 1 7c16,73 102,83 164,83 26,-1 56,-7 78,-23 15,-12 26,-26 26,-46 0,-30 -20,-46 -47,-55l0 0c-10,-4 -23,-7 -34,-9 -21,-5 -43,-8 -64,-12 -41,-7 -86,-16 -124,-33 -32,-15 -53,-40 -63,-74l-1 -1 0 0c-1,-12 -3,-25 -5,-36l0 -1 0 -1c5,-107 98,-140 192,-148 43,-2 86,7 127,22 49,17 80,54 95,104l3 7 -88 21 -3 -7c-9,-24 -25,-42 -49,-53 -26,-12 -54,-17 -83,-17 -24,0 -52,4 -73,19 -15,11 -24,26 -24,45 0,20 9,33 28,41 27,13 65,19 95,24 37,5 74,11 110,21 27,8 52,23 70,45zm502 -223c64,41 81,130 85,199 4,41 -4,81 -19,119 -17,43 -44,78 -81,106 -41,31 -90,42 -141,42 -74,0 -144,-20 -185,-85 -34,-53 -54,-111 -54,-174 0,-33 9,-69 20,-100 14,-42 40,-78 74,-107 41,-36 95,-47 149,-47 55,0 106,17 152,47zm290 457l-95 0 0 -661 95 0 0 661zm473 -73c-12,20 -28,36 -48,49 -32,22 -68,33 -107,33 -49,0 -93,-14 -129,-48 -39,-37 -50,-93 -50,-145l0 -310 95 0 0 305c0,72 25,121 102,118 22,0 43,-7 62,-19 20,-13 37,-31 49,-51 13,-22 19,-45 19,-70l0 -283 94 0 0 494 -87 0 0 -73zm239 -350l-91 0 0 -74 91 0 0 -119 93 -6 0 125 117 0 0 74 -117 0 0 277c0,20 3,43 15,60 12,17 39,21 58,21 21,-2 42,-4 63,-7l9 -2 0 75 -6 1c-25,3 -51,6 -76,6 -43,0 -93,-8 -122,-44 -27,-33 -34,-80 -34,-122l0 -265zm307 -238l103 0 0 98 -103 0 0 -98zm4 169l95 0 0 492 -95 0 0 -492zm598 35c63,41 80,130 85,199 4,41 -5,81 -19,119 -17,43 -44,78 -81,106 -41,31 -90,42 -141,42 -74,0 -144,-20 -185,-85 -34,-53 -54,-111 -54,-174 0,-33 9,-69 20,-100 14,-42 40,-78 74,-107 41,-36 95,-47 149,-47 55,0 106,17 152,47zm274 36c16,-22 36,-41 61,-56 29,-17 62,-27 97,-27 30,0 60,7 88,21 27,13 48,34 64,60 17,27 24,58 24,91l0 332 -92 0 0 -340c0,-25 -9,-46 -29,-62 -20,-16 -45,-23 -72,-23 -37,0 -68,15 -94,41 -32,33 -41,79 -41,123l0 261 -97 0 0 -492 91 0 0 71zm850 187c23,26 39,56 39,90 0,31 -12,57 -31,80 -22,26 -52,44 -84,55 -37,14 -76,19 -116,18 -46,-2 -91,-11 -134,-27 -51,-19 -78,-64 -94,-114l-2 -8 91 -17 1 7c16,73 102,83 163,83 27,-1 57,-7 79,-23 15,-12 26,-26 26,-46 0,-30 -20,-46 -47,-55l0 0c-11,-4 -24,-7 -35,-9 -21,-5 -42,-8 -63,-12 -41,-7 -87,-16 -124,-33 -32,-15 -53,-40 -63,-74l-1 -1 0 0c-1,-12 -3,-25 -5,-36l0 -1 0 -1c4,-107 98,-140 192,-148 43,-2 86,7 127,22 49,17 79,54 95,104l2 7 -87 21 -3 -7c-9,-24 -26,-42 -49,-53 -26,-12 -54,-17 -83,-17 -25,0 -52,4 -73,19 -15,11 -24,26 -24,45 0,20 9,33 27,41 28,13 66,19 96,24 36,5 74,11 109,21 28,8 53,23 71,45zm-6796 -69c-1,-36 -11,-70 -38,-95 -26,-25 -58,-36 -94,-36l-1 0c-35,2 -65,15 -91,38 -28,24 -41,57 -46,93l270 0zm3600 238c2,-1 4,-2 6,-2 0,0 0,0 1,0 29,0 58,-7 81,-27 20,-19 34,-42 43,-68 9,-31 13,-63 13,-95 0,-42 -11,-82 -31,-118 -22,-41 -62,-54 -106,-54 -42,0 -76,15 -102,49 -26,36 -36,79 -36,123 -2,49 4,107 39,144 25,27 55,46 92,48zm1911 0c2,-1 3,-2 6,-2 0,0 0,0 0,0 30,0 59,-7 81,-27 21,-19 35,-42 44,-68 9,-31 12,-63 12,-95 0,-42 -10,-82 -30,-118 -23,-41 -62,-54 -106,-54 -42,0 -77,15 -102,49 -26,36 -36,79 -36,123 -2,49 4,107 39,144 25,27 55,46 92,48z"/>
    <path class="fil3" d="M2065 1559l36 0 0 258 134 0 0 32 -170 0 0 -290zm374 161c0,-21 -5,-37 -17,-49 -11,-11 -24,-17 -40,-17l-1 0c-15,1 -28,7 -40,18 -11,11 -18,27 -20,48l118 0zm1 64l32 5c-8,23 -20,39 -37,48 -16,10 -33,15 -49,15 -34,2 -60,-8 -78,-31 -17,-23 -26,-50 -26,-82 0,-1 0,-1 0,-2 0,0 0,0 0,0 1,-18 5,-35 12,-52 8,-16 19,-30 33,-40 14,-10 30,-15 48,-15 33,-2 58,8 75,29 17,21 25,49 25,85l-155 0c-2,24 4,44 17,58 13,15 28,23 46,24 13,-1 25,-5 35,-12 11,-7 18,-17 22,-30zm255 -43l-21 0c-61,0 -93,16 -95,49 3,11 8,20 16,27 8,7 18,10 29,10 12,-1 23,-3 34,-8 11,-5 20,-14 27,-28 8,-13 11,-30 10,-50zm-1 -25c3,-41 -14,-61 -51,-61 -36,0 -56,12 -61,38l-32 -5c3,-19 13,-33 30,-44 17,-10 40,-15 67,-14 26,0 46,6 59,17 14,12 20,36 20,71l0 98c0,12 2,23 5,33l-33 0 -4 -40c-7,16 -17,27 -31,34 -14,6 -29,10 -44,10 -14,0 -27,-3 -38,-9 -12,-5 -21,-13 -28,-24 -6,-11 -9,-24 -8,-38 1,-15 9,-29 23,-42 13,-12 30,-19 51,-21 21,-2 46,-3 75,-3zm248 -157l33 0 0 290 -30 0 0 -40c-8,15 -18,26 -30,34 -11,7 -27,10 -47,9 -24,-2 -43,-15 -56,-36 -14,-22 -21,-46 -20,-74 0,-31 7,-57 22,-79 14,-21 36,-33 64,-33 27,-2 48,10 64,34l0 -105zm0 161c0,-22 -6,-39 -18,-49 -12,-11 -25,-16 -40,-16 -18,0 -33,8 -43,24 -10,16 -15,37 -14,62 0,23 5,42 13,59 8,16 21,24 39,25 13,0 26,-5 39,-13 13,-9 21,-25 24,-50l0 -42zm258 0c0,-21 -5,-37 -16,-49 -12,-11 -25,-17 -41,-17l-1 0c-15,1 -28,7 -40,18 -11,11 -18,27 -20,48l118 0zm1 64l32 5c-8,23 -20,39 -37,48 -16,10 -32,15 -49,15 -34,2 -60,-8 -77,-31 -18,-23 -27,-50 -27,-82 0,-1 1,-1 1,-2 0,0 0,0 0,0 0,-18 4,-35 12,-52 7,-16 18,-30 32,-40 14,-10 30,-15 49,-15 32,-2 57,8 74,29 17,21 26,49 26,85l-156 0c-2,24 4,44 17,58 13,15 29,23 47,24 12,-1 24,-5 34,-12 11,-7 18,-17 22,-30zm111 -150l30 0 0 52c4,-11 8,-20 13,-28 4,-8 11,-15 22,-22 11,-6 24,-9 40,-6l0 32c-22,-3 -39,4 -52,20 -14,15 -20,32 -20,50l0 117 -33 0 0 -215zm292 56c-5,-12 -12,-20 -22,-26 -11,-5 -23,-8 -36,-8 -14,0 -24,4 -32,10 -8,6 -11,13 -11,22 0,11 4,18 13,22 9,4 22,8 40,11 18,3 33,6 45,10 12,3 21,9 28,18 10,12 15,25 15,39 0,12 -4,23 -12,33 -8,10 -19,18 -33,24 -14,6 -30,8 -47,8 -19,-1 -37,-5 -54,-12 -18,-7 -30,-24 -37,-49l31 -6c5,26 29,40 70,40 15,-1 26,-5 34,-12 9,-6 13,-14 13,-23 0,-13 -8,-22 -22,-28 -6,-2 -19,-5 -41,-9 -22,-4 -38,-9 -51,-15 -12,-6 -20,-16 -24,-31 0,0 -1,-6 -2,-16 1,-38 27,-59 76,-63 16,-1 33,2 51,9 19,7 31,22 38,45l-30 7zm284 159l-36 0 0 -290 36 0 0 290zm93 -214l31 0 0 40c8,-14 18,-26 30,-34 12,-8 25,-11 38,-11 13,0 25,3 35,8 11,6 19,15 26,26 6,11 9,24 9,39l0 146 -32 0 0 -149c0,-13 -4,-23 -13,-31 -8,-7 -19,-11 -31,-11 -16,0 -30,7 -42,20 -12,13 -18,32 -18,57l0 114 -33 0 0 -214zm421 48l75 0c17,0 30,-5 39,-15 9,-10 14,-21 14,-35 0,-13 -5,-23 -14,-31 -10,-9 -24,-13 -41,-13l-73 0 0 94zm0 29l0 106 77 0c18,0 32,-5 43,-15 11,-9 16,-23 16,-40 -2,-34 -23,-51 -64,-51l-72 0zm-36 -153l116 0c27,0 48,7 62,21 14,13 21,29 22,49 0,16 -5,30 -14,42 -9,13 -22,21 -38,24 40,11 60,36 60,75 0,22 -7,40 -23,56 -15,15 -38,23 -68,23l-117 0 0 -290zm418 75l33 0 0 215 -30 0 0 -46c-3,14 -11,26 -24,35 -14,10 -28,15 -43,15 -21,0 -38,-7 -51,-21 -13,-13 -20,-34 -20,-62l0 -136 33 0 0 134c0,38 15,57 45,56 10,0 19,-4 28,-10 8,-6 16,-14 21,-24 5,-10 8,-21 8,-33l0 -123zm250 56c-5,-12 -12,-20 -22,-26 -11,-5 -23,-8 -36,-8 -14,0 -24,4 -32,10 -7,6 -11,13 -11,22 0,11 4,18 13,22 9,4 22,8 40,11 18,3 33,6 45,10 12,3 21,9 28,18 10,12 15,25 15,39 0,12 -4,23 -12,33 -8,10 -19,18 -33,24 -14,6 -30,8 -47,8 -19,-1 -37,-5 -54,-12 -18,-7 -30,-24 -37,-49l31 -6c5,26 29,40 70,40 15,-1 26,-5 35,-12 8,-6 12,-14 12,-23 0,-13 -7,-22 -22,-28 -6,-2 -19,-5 -41,-9 -22,-4 -38,-9 -50,-15 -12,-6 -21,-16 -25,-31 0,0 0,-6 -2,-16 2,-38 27,-59 76,-63 16,-1 33,2 52,9 18,7 31,22 37,45l-30 7zm117 -131l36 0 0 37 -36 0 0 -37zm2 76l33 0 0 214 -33 0 0 -214zm123 0l31 0 0 40c8,-14 18,-26 30,-34 12,-8 25,-11 38,-11 13,0 25,3 35,8 11,6 19,15 26,26 6,11 9,24 9,39l0 146 -32 0 0 -149c0,-13 -4,-23 -13,-31 -8,-7 -19,-11 -31,-11 -16,0 -29,7 -42,20 -12,13 -18,32 -18,57l0 114 -33 0 0 -214zm397 85c0,-21 -5,-37 -17,-49 -11,-11 -24,-17 -40,-17l-1 0c-15,1 -28,7 -40,18 -11,11 -18,27 -20,48l118 0zm1 64l32 5c-8,23 -20,39 -37,48 -16,10 -33,15 -49,15 -34,2 -60,-8 -77,-31 -18,-23 -27,-50 -27,-82 0,-1 0,-1 0,-2 0,0 0,0 0,0 1,-18 5,-35 12,-52 8,-16 19,-30 33,-40 14,-10 30,-15 48,-15 33,-2 58,8 75,29 17,21 25,49 25,85l-155 0c-2,24 4,44 17,58 13,15 28,23 46,24 13,-1 25,-5 35,-12 11,-7 18,-17 22,-30zm241 -94c-4,-12 -12,-20 -22,-26 -11,-5 -23,-8 -36,-8 -14,0 -24,4 -32,10 -7,6 -11,13 -11,22 0,11 4,18 13,22 9,4 22,8 41,11 18,3 33,6 44,10 12,3 21,9 28,18 10,12 15,25 15,39 0,12 -4,23 -12,33 -8,10 -19,18 -33,24 -14,6 -30,8 -47,8 -19,-1 -37,-5 -54,-12 -18,-7 -30,-24 -37,-49l31 -6c5,26 29,40 71,40 14,-1 26,-5 34,-12 8,-6 12,-14 12,-23 0,-13 -7,-22 -22,-28 -5,-2 -19,-5 -41,-9 -21,-4 -38,-9 -50,-15 -12,-6 -20,-16 -25,-31 0,0 0,-6 -2,-16 2,-38 27,-59 76,-63 16,-1 33,2 52,9 18,7 31,22 37,45l-30 7zm246 0c-5,-12 -12,-20 -23,-26 -10,-5 -22,-8 -35,-8 -14,0 -24,4 -32,10 -8,6 -11,13 -11,22 0,11 4,18 13,22 9,4 22,8 40,11 18,3 33,6 45,10 12,3 21,9 28,18 10,12 15,25 15,39 0,12 -4,23 -12,33 -8,10 -19,18 -33,24 -14,6 -30,8 -47,8 -19,-1 -37,-5 -54,-12 -18,-7 -30,-24 -37,-49l31 -6c5,26 29,40 70,40 15,-1 26,-5 34,-12 9,-6 13,-14 13,-23 0,-13 -8,-22 -22,-28 -6,-2 -19,-5 -41,-9 -22,-4 -38,-9 -51,-15 -12,-6 -20,-16 -24,-31 0,0 -1,-6 -2,-16 1,-38 27,-59 76,-63 16,-1 33,2 51,9 19,7 31,22 38,45l-30 7zm217 159l92 -290 42 0 94 290 -37 0 -29 -85 -106 0 -27 85 -29 0zm109 -251l-44 139 89 0 -45 -139zm309 92c-4,-12 -12,-20 -22,-26 -11,-5 -23,-8 -36,-8 -14,0 -24,4 -32,10 -7,6 -11,13 -11,22 0,11 4,18 13,22 9,4 22,8 41,11 18,3 33,6 44,10 12,3 21,9 28,18 10,12 15,25 15,39 0,12 -4,23 -12,33 -8,10 -19,18 -33,24 -14,6 -30,8 -47,8 -19,-1 -37,-5 -54,-12 -18,-7 -30,-24 -37,-49l31 -6c5,26 29,40 71,40 14,-1 26,-5 34,-12 8,-6 12,-14 12,-23 0,-13 -7,-22 -22,-28 -5,-2 -19,-5 -41,-9 -21,-4 -38,-9 -50,-15 -12,-6 -20,-16 -25,-31 0,0 0,-6 -2,-16 2,-38 27,-59 76,-63 16,-1 33,2 52,9 18,7 31,22 37,45l-30 7zm246 0c-5,-12 -12,-20 -23,-26 -10,-5 -22,-8 -35,-8 -14,0 -24,4 -32,10 -8,6 -11,13 -11,22 0,11 4,18 13,22 9,4 22,8 40,11 18,3 33,6 45,10 12,3 21,9 28,18 10,12 15,25 15,39 0,12 -4,23 -12,33 -8,10 -19,18 -33,24 -14,6 -30,8 -47,8 -19,-1 -37,-5 -54,-12 -18,-7 -30,-24 -37,-49l31 -6c5,26 29,40 70,40 15,-1 26,-5 34,-12 9,-6 13,-14 13,-23 0,-13 -8,-22 -22,-28 -6,-2 -19,-5 -41,-9 -22,-4 -38,-9 -51,-15 -12,-6 -20,-16 -24,-31 0,0 -1,-6 -2,-16 1,-38 27,-59 76,-63 16,-1 33,2 51,9 19,7 31,22 38,45l-30 7zm258 30c0,-21 -6,-37 -17,-49 -12,-11 -25,-17 -41,-17l-1 0c-15,1 -28,7 -39,18 -12,11 -19,27 -21,48l119 0zm0 64l32 5c-8,23 -20,39 -36,48 -17,10 -33,15 -50,15 -34,2 -60,-8 -77,-31 -18,-23 -27,-50 -27,-82 0,-1 1,-1 1,-2 0,0 0,0 0,0 0,-18 4,-35 12,-52 7,-16 18,-30 32,-40 14,-10 30,-15 49,-15 32,-2 57,8 74,29 17,21 26,49 26,85l-156 0c-1,24 4,44 17,58 13,15 29,23 47,24 12,-1 24,-5 34,-12 11,-7 18,-17 22,-30zm120 -125l-38 0 0 -26 38 0 0 -54 32 -2 0 56 49 0 0 26 -49 0 0 127c0,13 3,22 7,29 5,7 13,11 27,11 11,-1 19,-2 26,-3l0 27c-11,1 -21,2 -30,2 -23,0 -39,-6 -48,-18 -9,-12 -14,-30 -14,-53l0 -122zm276 -100l102 0c19,0 35,4 49,10 14,7 24,16 31,28 8,12 12,26 13,41 2,15 0,30 -6,44 -6,15 -16,27 -31,36 -15,9 -34,13 -58,13l-64 0 0 118 -36 0 0 -290zm36 31l0 111 64 0c15,0 26,-3 36,-9 9,-5 15,-13 19,-21 3,-9 5,-19 4,-29 0,-10 -3,-19 -7,-27 -4,-7 -10,-13 -19,-18 -9,-5 -20,-7 -33,-7l-64 0zm230 44l30 0 0 52c4,-11 9,-20 13,-28 4,-8 12,-15 22,-22 11,-6 24,-9 40,-6l0 32c-21,-3 -39,4 -52,20 -13,15 -20,32 -20,50l0 117 -33 0 0 -215zm311 103c0,-20 -5,-38 -13,-55 -9,-17 -25,-26 -47,-26 -19,0 -34,8 -44,24 -11,15 -16,34 -16,57 -1,30 4,52 17,67 12,14 26,22 41,22 1,0 1,0 2,0 0,0 0,0 0,0 15,-1 27,-5 36,-14 8,-8 15,-19 18,-32 4,-12 6,-27 6,-43zm-156 3c0,-12 2,-27 8,-44 5,-17 15,-32 29,-46 15,-14 35,-20 60,-20 21,0 42,6 61,20 20,14 31,43 34,87 1,16 -1,33 -8,51 -6,19 -17,34 -32,46 -15,13 -34,19 -57,19 -35,0 -59,-12 -74,-37 -14,-24 -21,-50 -21,-76zm277 -81l-38 0 0 -26 38 0 0 -54 32 -2 0 56 48 0 0 26 -48 0 0 127c0,13 2,22 6,29 5,7 14,11 27,11 11,-1 20,-2 27,-3l0 27c-11,1 -21,2 -31,2 -23,0 -39,-6 -48,-18 -9,-12 -13,-30 -13,-53l0 -122zm294 61c0,-21 -6,-37 -17,-49 -11,-11 -25,-17 -41,-17l0 0c-15,1 -28,7 -40,18 -12,11 -18,27 -20,48l118 0zm1 64l32 5c-8,23 -21,39 -37,48 -16,10 -33,15 -49,15 -35,2 -60,-8 -78,-31 -17,-23 -26,-50 -27,-82 1,-1 1,-1 1,-2 0,0 0,0 0,0 0,-18 4,-35 12,-52 8,-16 19,-30 33,-40 13,-10 30,-15 48,-15 33,-2 57,8 75,29 17,21 25,49 25,85l-155 0c-2,24 4,44 17,58 13,15 28,23 46,24 13,-1 25,-5 35,-12 10,-7 18,-17 22,-30zm239 -12l30 6c-3,20 -11,37 -24,52 -13,15 -34,23 -61,23 -29,0 -51,-12 -67,-34 -15,-23 -22,-50 -21,-82 0,-20 4,-38 11,-54 7,-16 17,-29 31,-39 13,-10 30,-14 50,-14 20,0 37,5 52,17 15,12 25,30 29,56l-30 6c-2,-19 -9,-32 -19,-40 -10,-8 -21,-12 -32,-12 -18,0 -33,8 -42,23 -10,16 -15,34 -15,56 0,25 4,46 13,63 9,17 23,26 42,26 16,-1 28,-5 36,-14 8,-9 14,-22 17,-39zm110 -113l-38 0 0 -26 38 0 0 -54 32 -2 0 56 48 0 0 26 -48 0 0 127c0,13 2,22 6,29 5,7 14,11 27,11 11,-1 20,-2 27,-3l0 27c-11,1 -21,2 -31,2 -23,0 -39,-6 -48,-18 -9,-12 -13,-30 -13,-53l0 -122zm154 -100l36 0 0 37 -36 0 0 -37zm2 76l32 0 0 214 -32 0 0 -214zm266 102c0,-20 -4,-38 -13,-55 -8,-17 -24,-26 -46,-26 -19,0 -34,8 -45,24 -10,15 -16,34 -16,57 -1,30 5,52 17,67 13,14 27,22 42,22 0,0 1,0 1,0 0,0 1,0 1,0 14,-1 26,-5 35,-14 9,-8 15,-19 19,-32 3,-12 5,-27 5,-43zm-156 3c0,-12 3,-27 8,-44 6,-17 15,-32 30,-46 14,-14 34,-20 59,-20 22,0 42,6 62,20 19,14 31,43 33,87 2,16 -1,33 -7,51 -7,19 -18,34 -33,46 -15,13 -34,19 -56,19 -35,0 -60,-12 -74,-37 -15,-24 -22,-50 -22,-76zm266 -105l32 0 0 40c7,-14 17,-26 29,-34 13,-8 25,-11 39,-11 12,0 24,3 35,8 10,6 19,15 25,26 7,11 10,24 10,39l0 146 -32 0 0 -149c0,-13 -5,-23 -13,-31 -9,-7 -19,-11 -32,-11 -15,0 -29,7 -41,20 -12,13 -18,32 -18,57l0 114 -34 0 0 -214z"/>
    <path class="fil3" d="M250 908l191 0 134 426 131 -426 185 0 -219 592 -198 0 -224 -592zm558 396l174 -11c4,29 11,50 23,65 19,23 46,35 80,35 27,0 47,-6 61,-18 14,-12 21,-26 21,-42 0,-16 -7,-29 -20,-42 -13,-12 -45,-23 -93,-34 -81,-18 -138,-42 -172,-72 -34,-29 -51,-67 -51,-114 0,-30 8,-59 26,-86 18,-27 44,-48 79,-63 36,-16 84,-23 146,-23 76,0 133,14 173,42 39,28 63,73 71,134l-172 10c-5,-27 -15,-46 -29,-58 -15,-13 -35,-19 -61,-19 -21,0 -37,5 -48,14 -11,9 -16,20 -16,33 0,9 4,18 13,25 8,8 29,15 61,22 80,17 137,35 172,52 34,18 59,40 75,66 16,26 24,55 24,87 0,38 -11,73 -32,105 -21,32 -50,57 -88,73 -37,17 -85,25 -142,25 -101,0 -170,-19 -209,-58 -39,-39 -61,-88 -66,-148zm476 -396l556 0 0 147 -187 0 0 445 -182 0 0 -445 -187 0 0 -147z"/>
   </g>
  </g>
 </g>
</svg>
